…
    ## [1] 0.6631599

Run prop.test for each city, extract the proportion and CIs for each:

``` r
aggregate_df %>%
  mutate(
    prop_tests = map2(.x = unsolved_hom, .y = total_hom, ~prop.test(x = .x, n = .y)), 
    tidy_tests = map(.x = prop_tests, ~broom::tidy(.x))
  )
```

    ## # A tibble: 50 x 5
    ##    city_state     total_hom unsolved_hom prop_tests tidy_tests      
    ##    <chr>              <int>        <int> <list>     <list>          
    ##  1 Albuquerque_NM       378          146 <htest>    <tibble [1 x 8]>
    ##  2 Atlanta_GA           973          373 <htest>    <tibble [1 x 8]>
    ##  3 Baltimore_MD        2827         1825 <htest>    <tibble [1 x 8]>
    ##  4 Baton Rouge_LA       424          196 <htest>    <tibble [1 x 8]>
    ##  5 Birmingham_AL        800          347 <htest>    <tibble [1 x 8]>
    ##  6 Boston_MA            614          310 <htest>    <tibble [1 x 8]>
    ##  7 Buffalo_NY           521          319 <htest>    <tibble [1 x 8]>
    ##  8 Charlotte_NC         687          206 <htest>    <tibble [1 x 8]>
    ##  9 Chicago_IL          5535         4073 <htest>    <tibble [1 x 8]>
    ## 10 Cincinnati_OH        694          309 <htest>    <tibble [1 x 8]>
    ## # ... with 40 more rows
…
